{ 
    "_id" : ObjectId("5aaff521801a4c0c171c8c34"), 
    "id" : NumberInt(1), 
    "first_name" : "Minda", 
    "last_name" : "Cordeau]", 
    "email" : "mcordeau0@blog.com", 
    "password" : "BbngtBvHbDuK"
}
{ 
    "_id" : ObjectId("5aaff521801a4c0c171c8c35"), 
    "id" : NumberInt(2), 
    "first_name" : "Phyllida", 
    "last_name" : "Hiddy", 
    "email" : "phiddy1@simplemachines.org", 
    "password" : "MfMS5GlHbT"
}
{ 
    "_id" : ObjectId("5aaff521801a4c0c171c8c36"), 
    "id" : NumberInt(3), 
    "first_name" : "Daryl", 
    "last_name" : "Trippett", 
    "email" : "dtrippett2@friendfeed.com", 
    "password" : "0QRUEzQS"
}
{ 
    "_id" : ObjectId("5aaff521801a4c0c171c8c37"), 
    "id" : NumberInt(4), 
    "first_name" : "June", 
    "last_name" : "Woolmington", 
    "email" : "jwoolmington3@state.gov", 
    "password" : "fgfjABFjLzl"
}
{ 
    "_id" : ObjectId("5aaff521801a4c0c171c8c38"), 
    "id" : NumberInt(5), 
    "first_name" : "Bobinette", 
    "last_name" : "Blazy", 
    "email" : "bblazy4@un.org", 
    "password" : "WZqqzS"
}
{ 
    "_id" : ObjectId("5aaff521801a4c0c171c8c39"), 
    "id" : NumberInt(6), 
    "first_name" : "Andromache", 
    "last_name" : "Hugues", 
    "email" : "ahugues5@blogtalkradio.com", 
    "password" : "Kz3z73Myfi"
}
{ 
    "_id" : ObjectId("5aaff521801a4c0c171c8c3a"), 
    "id" : NumberInt(7), 
    "first_name" : "Dorelia", 
    "last_name" : "Weeden", 
    "email" : "dweeden6@facebook.com", 
    "password" : "zZLaOxjU7"
}
{ 
    "_id" : ObjectId("5aaff521801a4c0c171c8c3b"), 
    "id" : NumberInt(8), 
    "first_name" : "Sean", 
    "last_name" : "Searsby", 
    "email" : "ssearsby7@twitpic.com", 
    "password" : "0BkNosoTSYTV"
}
{ 
    "_id" : ObjectId("5aaff521801a4c0c171c8c3c"), 
    "id" : NumberInt(9), 
    "first_name" : "Chev", 
    "last_name" : "Litterick", 
    "email" : "clitterick8@wiley.com", 
    "password" : "OpUpVP9XkRn"
}
{ 
    "_id" : ObjectId("5aaff521801a4c0c171c8c3d"), 
    "id" : NumberInt(10), 
    "first_name" : "Winni", 
    "last_name" : "Gabey", 
    "email" : "wgabey9@miitbeian.gov.cn", 
    "password" : "s80bTCER"
}
{ 
    "_id" : ObjectId("5aaff521801a4c0c171c8c3e"), 
    "id" : NumberInt(11), 
    "first_name" : "Christoph", 
    "last_name" : "Kimmins", 
    "email" : "ckimminsa@thetimes.co.uk", 
    "password" : "1ekPFG6X5qya"
}
{ 
    "_id" : ObjectId("5aaff521801a4c0c171c8c3f"), 
    "id" : NumberInt(12), 
    "first_name" : "Farlay", 
    "last_name" : "Petrushanko", 
    "email" : "fpetrushankob@lycos.com", 
    "password" : "wJjRjmfxHv4s"
}
{ 
    "_id" : ObjectId("5aaff521801a4c0c171c8c40"), 
    "id" : NumberInt(13), 
    "first_name" : "Kameko", 
    "last_name" : "Pond", 
    "email" : "kpondc@fastcompany.com", 
    "password" : "VNA7DPdJLf"
}
{ 
    "_id" : ObjectId("5aaff521801a4c0c171c8c41"), 
    "id" : NumberInt(14), 
    "first_name" : "Lyon", 
    "last_name" : "McCrudden", 
    "email" : "lmccruddend@taobao.com", 
    "password" : "jHioSPr3q9W"
}
{ 
    "_id" : ObjectId("5aaff521801a4c0c171c8c42"), 
    "id" : NumberInt(15), 
    "first_name" : "Terrell", 
    "last_name" : "Jenner", 
    "email" : "tjennere@sitemeter.com", 
    "password" : "hLLECReWOd"
}
{ 
    "_id" : ObjectId("5aaff521801a4c0c171c8c43"), 
    "id" : NumberInt(16), 
    "first_name" : "Loydie", 
    "last_name" : "Tollow", 
    "email" : "ltollowf@clickbank.net", 
    "password" : "YW94Jt"
}
{ 
    "_id" : ObjectId("5aaff521801a4c0c171c8c44"), 
    "id" : NumberInt(17), 
    "first_name" : "Rebeka", 
    "last_name" : "Rayhill", 
    "email" : "rrayhillg@ocn.ne.jp", 
    "password" : "uM2BZe"
}
{ 
    "_id" : ObjectId("5aaff521801a4c0c171c8c45"), 
    "id" : NumberInt(18), 
    "first_name" : "Marlo", 
    "last_name" : "Gallemore", 
    "email" : "mgallemoreh@chronoengine.com", 
    "password" : "ThVlLpTVV"
}
{ 
    "_id" : ObjectId("5aaff521801a4c0c171c8c46"), 
    "id" : NumberInt(19), 
    "first_name" : "Bambi", 
    "last_name" : "Mapham", 
    "email" : "bmaphami@devhub.com", 
    "password" : "YwuFxbZ"
}
{ 
    "_id" : ObjectId("5aaff521801a4c0c171c8c47"), 
    "id" : NumberInt(20), 
    "first_name" : "Codie", 
    "last_name" : "Donaghy", 
    "email" : "cdonaghyj@google.pl", 
    "password" : "PimG5IHG"
}
{ 
    "_id" : ObjectId("5aaff521801a4c0c171c8c48"), 
    "id" : NumberInt(21), 
    "first_name" : "Mill", 
    "last_name" : "Nanelli", 
    "email" : "mnanellik@sourceforge.net", 
    "password" : "rVcgxY0g092Q"
}
{ 
    "_id" : ObjectId("5aaff521801a4c0c171c8c49"), 
    "id" : NumberInt(22), 
    "first_name" : "Janet", 
    "last_name" : "Claffey", 
    "email" : "jclaffeyl@i2i.jp", 
    "password" : "Hk0Idl"
}
{ 
    "_id" : ObjectId("5aaff521801a4c0c171c8c4a"), 
    "id" : NumberInt(23), 
    "first_name" : "Marcile", 
    "last_name" : "Dechelle", 
    "email" : "mdechellem@spotify.com", 
    "password" : "Ulruc7pU"
}
{ 
    "_id" : ObjectId("5aaff521801a4c0c171c8c4b"), 
    "id" : NumberInt(24), 
    "first_name" : "Willis", 
    "last_name" : "Brisard", 
    "email" : "wbrisardn@behance.net", 
    "password" : "r6A8J7TC"
}
{ 
    "_id" : ObjectId("5aaff521801a4c0c171c8c4c"), 
    "id" : NumberInt(25), 
    "first_name" : "Elmo", 
    "last_name" : "Bromige", 
    "email" : "ebromigeo@rambler.ru", 
    "password" : "youLKN"
}
{ 
    "_id" : ObjectId("5aaff521801a4c0c171c8c4d"), 
    "id" : NumberInt(26), 
    "first_name" : "Frasco", 
    "last_name" : "Bampkin", 
    "email" : "fbampkinp@ed.gov", 
    "password" : "WHH2vI"
}
{ 
    "_id" : ObjectId("5aaff521801a4c0c171c8c4e"), 
    "id" : NumberInt(27), 
    "first_name" : "Ichabod", 
    "last_name" : "Ingreda", 
    "email" : "iingredaq@nymag.com", 
    "password" : "YGtiUpN"
}
{ 
    "_id" : ObjectId("5aaff521801a4c0c171c8c4f"), 
    "id" : NumberInt(28), 
    "first_name" : "Clement", 
    "last_name" : "Shadwick", 
    "email" : "cshadwickr@de.vu", 
    "password" : "iyKGdqgd"
}
{ 
    "_id" : ObjectId("5aaff521801a4c0c171c8c50"), 
    "id" : NumberInt(29), 
    "first_name" : "Hedy", 
    "last_name" : "Purslow", 
    "email" : "hpurslows@sohu.com", 
    "password" : "HdefXgZs"
}
{ 
    "_id" : ObjectId("5aaff521801a4c0c171c8c51"), 
    "id" : NumberInt(30), 
    "first_name" : "Desiri", 
    "last_name" : "Penright", 
    "email" : "dpenrightt@pen.io", 
    "password" : "T3e25FBI"
}
